{
  "type": "sqlite",
  "database": "db.sqlite3",
  "autoSchemaSync": true,
  "synchronize": true,
  "logging": true,
  "entities": [
    "src/entities/*.ts"
  ],
  "migrations": [
    "src/migration/*.ts"
  ],
  "subscribers": [
    "src/subscriber/*.ts"
  ]
}